PWD c:\Users\AstridRP\Documents\Article\article
INPUT C:\Users\AstridRP\AppData\Local\MiKTeX\miktex\data\le\pdftex\pdflatex.fmt
INPUT c:\Users\AstridRP\Documents\Article\article\main.tex
OUTPUT c:\Users\AstridRP\Documents\Article\article\main.log
INPUT c:\Users\AstridRP\Documents\Article\article\elsarticle.cls
INPUT c:\Users\AstridRP\Documents\Article\article\elsarticle.cls
INPUT C:\Program Files\MiKTeX\tex\latex\base\article.cls
INPUT C:\Program Files\MiKTeX\tex\latex\base\article.cls
INPUT C:\Program Files\MiKTeX\tex\latex\base\size10.clo
INPUT C:\Program Files\MiKTeX\tex\latex\base\size10.clo
INPUT C:\Program Files\MiKTeX\tex\latex\graphics\graphicx.sty
INPUT C:\Program Files\MiKTeX\tex\latex\graphics\graphicx.sty
INPUT C:\Program Files\MiKTeX\tex\latex\graphics\keyval.sty
INPUT C:\Program Files\MiKTeX\tex\latex\graphics\keyval.sty
INPUT C:\Program Files\MiKTeX\tex\latex\graphics\graphics.sty
INPUT C:\Program Files\MiKTeX\tex\latex\graphics\graphics.sty
INPUT C:\Program Files\MiKTeX\tex\latex\graphics\trig.sty
INPUT C:\Program Files\MiKTeX\tex\latex\graphics\trig.sty
INPUT C:\Program Files\MiKTeX\tex\latex\graphics-cfg\graphics.cfg
INPUT C:\Program Files\MiKTeX\tex\latex\graphics-cfg\graphics.cfg
INPUT C:\Program Files\MiKTeX\tex\latex\graphics-def\pdftex.def
INPUT C:\Program Files\MiKTeX\tex\latex\graphics-def\pdftex.def
INPUT c:\Users\AstridRP\Documents\Article\article\main.spl
INPUT c:\Users\AstridRP\Documents\Article\article\main.spl
INPUT C:\Program Files\MiKTeX\tex\latex\natbib\natbib.sty
INPUT C:\Program Files\MiKTeX\tex\latex\natbib\natbib.sty
OUTPUT c:\Users\AstridRP\Documents\Article\article\main.spl
INPUT C:\Program Files\MiKTeX\tex\latex\amsfonts\amssymb.sty
INPUT C:\Program Files\MiKTeX\tex\latex\amsfonts\amssymb.sty
INPUT C:\Program Files\MiKTeX\tex\latex\amsfonts\amsfonts.sty
INPUT C:\Program Files\MiKTeX\tex\latex\amsfonts\amsfonts.sty
INPUT C:\Program Files\MiKTeX\tex\latex\pgf\frontendlayer\tikz.sty
INPUT C:\Program Files\MiKTeX\tex\latex\pgf\frontendlayer\tikz.sty
INPUT C:\Program Files\MiKTeX\tex\latex\pgf\basiclayer\pgf.sty
INPUT C:\Program Files\MiKTeX\tex\latex\pgf\basiclayer\pgf.sty
INPUT C:\Program Files\MiKTeX\tex\latex\pgf\utilities\pgfrcs.sty
INPUT C:\Program Files\MiKTeX\tex\latex\pgf\utilities\pgfrcs.sty
INPUT C:\Program Files\MiKTeX\tex\generic\pgf\utilities\pgfutil-common.tex
INPUT C:\Program Files\MiKTeX\tex\generic\pgf\utilities\pgfutil-common-lists.tex
INPUT C:\Program Files\MiKTeX\tex\generic\pgf\utilities\pgfutil-latex.def
INPUT C:\Program Files\MiKTeX\tex\latex\ms\everyshi.sty
INPUT C:\Program Files\MiKTeX\tex\latex\ms\everyshi.sty
INPUT C:\Program Files\MiKTeX\tex\generic\pgf\utilities\pgfrcs.code.tex
INPUT C:\Program Files\MiKTeX\tex\generic\pgf\utilities\pgfrcs.code.tex
INPUT C:\Program Files\MiKTeX\tex\generic\pgf\pgf.revision.tex
INPUT C:\Program Files\MiKTeX\tex\generic\pgf\pgf.revision.tex
INPUT C:\Program Files\MiKTeX\tex\latex\pgf\basiclayer\pgfcore.sty
INPUT C:\Program Files\MiKTeX\tex\latex\pgf\basiclayer\pgfcore.sty
INPUT C:\Program Files\MiKTeX\tex\latex\pgf\systemlayer\pgfsys.sty
INPUT C:\Program Files\MiKTeX\tex\latex\pgf\systemlayer\pgfsys.sty
INPUT C:\Program Files\MiKTeX\tex\generic\pgf\systemlayer\pgfsys.code.tex
INPUT C:\Program Files\MiKTeX\tex\generic\pgf\systemlayer\pgfsys.code.tex
INPUT C:\Program Files\MiKTeX\tex\generic\pgf\utilities\pgfkeys.code.tex
INPUT C:\Program Files\MiKTeX\tex\generic\pgf\utilities\pgfkeysfiltered.code.tex
INPUT C:\Program Files\MiKTeX\tex\generic\pgf\systemlayer\pgf.cfg
INPUT C:\Program Files\MiKTeX\tex\generic\pgf\systemlayer\pgfsys-pdftex.def
INPUT C:\Program Files\MiKTeX\tex\generic\pgf\systemlayer\pgfsys-pdftex.def
INPUT C:\Program Files\MiKTeX\tex\generic\pgf\systemlayer\pgfsys-common-pdf.def
INPUT C:\Program Files\MiKTeX\tex\generic\pgf\systemlayer\pgfsyssoftpath.code.tex
INPUT C:\Program Files\MiKTeX\tex\generic\pgf\systemlayer\pgfsyssoftpath.code.tex
INPUT C:\Program Files\MiKTeX\tex\generic\pgf\systemlayer\pgfsysprotocol.code.tex
INPUT C:\Program Files\MiKTeX\tex\generic\pgf\systemlayer\pgfsysprotocol.code.tex
INPUT C:\Program Files\MiKTeX\tex\latex\xcolor\xcolor.sty
INPUT C:\Program Files\MiKTeX\tex\latex\xcolor\xcolor.sty
INPUT C:\Program Files\MiKTeX\tex\latex\graphics-cfg\color.cfg
INPUT C:\Program Files\MiKTeX\tex\latex\graphics-cfg\color.cfg
INPUT C:\Program Files\MiKTeX\tex\generic\pgf\basiclayer\pgfcore.code.tex
INPUT C:\Program Files\MiKTeX\tex\generic\pgf\basiclayer\pgfcore.code.tex
INPUT C:\Program Files\MiKTeX\tex\generic\pgf\math\pgfmath.code.tex
INPUT C:\Program Files\MiKTeX\tex\generic\pgf\math\pgfmathcalc.code.tex
INPUT C:\Program Files\MiKTeX\tex\generic\pgf\math\pgfmathutil.code.tex
INPUT C:\Program Files\MiKTeX\tex\generic\pgf\math\pgfmathparser.code.tex
INPUT C:\Program Files\MiKTeX\tex\generic\pgf\math\pgfmathfunctions.code.tex
INPUT C:\Program Files\MiKTeX\tex\generic\pgf\math\pgfmathfunctions.basic.code.tex
INPUT C:\Program Files\MiKTeX\tex\generic\pgf\math\pgfmathfunctions.trigonometric.code.tex
INPUT C:\Program Files\MiKTeX\tex\generic\pgf\math\pgfmathfunctions.random.code.tex
INPUT C:\Program Files\MiKTeX\tex\generic\pgf\math\pgfmathfunctions.comparison.code.tex
INPUT C:\Program Files\MiKTeX\tex\generic\pgf\math\pgfmathfunctions.base.code.tex
INPUT C:\Program Files\MiKTeX\tex\generic\pgf\math\pgfmathfunctions.round.code.tex
INPUT C:\Program Files\MiKTeX\tex\generic\pgf\math\pgfmathfunctions.misc.code.tex
INPUT C:\Program Files\MiKTeX\tex\generic\pgf\math\pgfmathfunctions.integerarithmetics.code.tex
INPUT C:\Program Files\MiKTeX\tex\generic\pgf\math\pgfmathfloat.code.tex
INPUT C:\Program Files\MiKTeX\tex\generic\pgf\math\pgfint.code.tex
INPUT C:\Program Files\MiKTeX\tex\generic\pgf\basiclayer\pgfcorepoints.code.tex
INPUT C:\Program Files\MiKTeX\tex\generic\pgf\basiclayer\pgfcorepathconstruct.code.tex
INPUT C:\Program Files\MiKTeX\tex\generic\pgf\basiclayer\pgfcorepathusage.code.tex
INPUT C:\Program Files\MiKTeX\tex\generic\pgf\basiclayer\pgfcorescopes.code.tex
INPUT C:\Program Files\MiKTeX\tex\generic\pgf\basiclayer\pgfcoregraphicstate.code.tex
INPUT C:\Program Files\MiKTeX\tex\generic\pgf\basiclayer\pgfcoretransformations.code.tex
INPUT C:\Program Files\MiKTeX\tex\generic\pgf\basiclayer\pgfcorequick.code.tex
INPUT C:\Program Files\MiKTeX\tex\generic\pgf\basiclayer\pgfcoreobjects.code.tex
INPUT C:\Program Files\MiKTeX\tex\generic\pgf\basiclayer\pgfcorepathprocessing.code.tex
INPUT C:\Program Files\MiKTeX\tex\generic\pgf\basiclayer\pgfcorearrows.code.tex
INPUT C:\Program Files\MiKTeX\tex\generic\pgf\basiclayer\pgfcoreshade.code.tex
INPUT C:\Program Files\MiKTeX\tex\generic\pgf\basiclayer\pgfcoreimage.code.tex
INPUT C:\Program Files\MiKTeX\tex\generic\pgf\basiclayer\pgfcoreexternal.code.tex
INPUT C:\Program Files\MiKTeX\tex\generic\pgf\basiclayer\pgfcorelayers.code.tex
INPUT C:\Program Files\MiKTeX\tex\generic\pgf\basiclayer\pgfcoretransparency.code.tex
INPUT C:\Program Files\MiKTeX\tex\generic\pgf\basiclayer\pgfcorepatterns.code.tex
INPUT C:\Program Files\MiKTeX\tex\generic\pgf\basiclayer\pgfcorerdf.code.tex
INPUT C:\Program Files\MiKTeX\tex\generic\pgf\modules\pgfmoduleshapes.code.tex
INPUT C:\Program Files\MiKTeX\tex\generic\pgf\modules\pgfmoduleplot.code.tex
INPUT C:\Program Files\MiKTeX\tex\latex\pgf\compatibility\pgfcomp-version-0-65.sty
INPUT C:\Program Files\MiKTeX\tex\latex\pgf\compatibility\pgfcomp-version-0-65.sty
INPUT C:\Program Files\MiKTeX\tex\latex\pgf\compatibility\pgfcomp-version-1-18.sty
INPUT C:\Program Files\MiKTeX\tex\latex\pgf\compatibility\pgfcomp-version-1-18.sty
INPUT C:\Program Files\MiKTeX\tex\latex\pgf\utilities\pgffor.sty
INPUT C:\Program Files\MiKTeX\tex\latex\pgf\utilities\pgffor.sty
INPUT C:\Program Files\MiKTeX\tex\latex\pgf\utilities\pgfkeys.sty
INPUT C:\Program Files\MiKTeX\tex\latex\pgf\utilities\pgfkeys.sty
INPUT C:\Program Files\MiKTeX\tex\generic\pgf\utilities\pgfkeys.code.tex
INPUT C:\Program Files\MiKTeX\tex\generic\pgf\utilities\pgfkeys.code.tex
INPUT C:\Program Files\MiKTeX\tex\latex\pgf\math\pgfmath.sty
INPUT C:\Program Files\MiKTeX\tex\latex\pgf\math\pgfmath.sty
INPUT C:\Program Files\MiKTeX\tex\generic\pgf\math\pgfmath.code.tex
INPUT C:\Program Files\MiKTeX\tex\generic\pgf\math\pgfmath.code.tex
INPUT C:\Program Files\MiKTeX\tex\generic\pgf\utilities\pgffor.code.tex
INPUT C:\Program Files\MiKTeX\tex\generic\pgf\utilities\pgffor.code.tex
INPUT C:\Program Files\MiKTeX\tex\generic\pgf\math\pgfmath.code.tex
INPUT C:\Program Files\MiKTeX\tex\generic\pgf\frontendlayer\tikz\tikz.code.tex
INPUT C:\Program Files\MiKTeX\tex\generic\pgf\frontendlayer\tikz\tikz.code.tex
INPUT C:\Program Files\MiKTeX\tex\generic\pgf\libraries\pgflibraryplothandlers.code.tex
INPUT C:\Program Files\MiKTeX\tex\generic\pgf\libraries\pgflibraryplothandlers.code.tex
INPUT C:\Program Files\MiKTeX\tex\generic\pgf\modules\pgfmodulematrix.code.tex
INPUT C:\Program Files\MiKTeX\tex\generic\pgf\frontendlayer\tikz\libraries\tikzlibrarytopaths.code.tex
INPUT C:\Program Files\MiKTeX\tex\generic\pgf\frontendlayer\tikz\libraries\tikzlibrarytopaths.code.tex
INPUT C:\Program Files\MiKTeX\tex\generic\pgf\frontendlayer\tikz\libraries\tikzlibrarypositioning.code.tex
INPUT C:\Program Files\MiKTeX\tex\generic\pgf\frontendlayer\tikz\libraries\tikzlibrarypositioning.code.tex
INPUT C:\Program Files\MiKTeX\tex\generic\pgf\frontendlayer\tikz\libraries\tikzlibrarymatrix.code.tex
INPUT C:\Program Files\MiKTeX\tex\generic\pgf\frontendlayer\tikz\libraries\tikzlibrarymatrix.code.tex
INPUT C:\Program Files\MiKTeX\tex\latex\amscls\amsthm.sty
INPUT C:\Program Files\MiKTeX\tex\latex\amscls\amsthm.sty
INPUT C:\Program Files\MiKTeX\tex\latex\amsmath\amsmath.sty
INPUT C:\Program Files\MiKTeX\tex\latex\amsmath\amsmath.sty
INPUT C:\Program Files\MiKTeX\tex\latex\amsmath\amstext.sty
INPUT C:\Program Files\MiKTeX\tex\latex\amsmath\amstext.sty
INPUT C:\Program Files\MiKTeX\tex\latex\amsmath\amsgen.sty
INPUT C:\Program Files\MiKTeX\tex\latex\amsmath\amsgen.sty
INPUT C:\Program Files\MiKTeX\tex\latex\amsmath\amsbsy.sty
INPUT C:\Program Files\MiKTeX\tex\latex\amsmath\amsbsy.sty
INPUT C:\Program Files\MiKTeX\tex\latex\amsmath\amsopn.sty
INPUT C:\Program Files\MiKTeX\tex\latex\amsmath\amsopn.sty
INPUT C:\Program Files\MiKTeX\tex\latex\caption\subcaption.sty
INPUT C:\Program Files\MiKTeX\tex\latex\caption\subcaption.sty
INPUT C:\Program Files\MiKTeX\tex\latex\caption\caption.sty
INPUT C:\Program Files\MiKTeX\tex\latex\caption\caption.sty
INPUT C:\Program Files\MiKTeX\tex\latex\caption\caption3.sty
INPUT C:\Program Files\MiKTeX\tex\latex\caption\caption3.sty
INPUT C:\Program Files\MiKTeX\tex\latex\caption\caption-elsarticle.sto
INPUT C:\Program Files\MiKTeX\tex\latex\caption\caption-elsarticle.sto
INPUT C:\Program Files\MiKTeX\tex\latex\algorithms\algorithm.sty
INPUT C:\Program Files\MiKTeX\tex\latex\algorithms\algorithm.sty
INPUT C:\Program Files\MiKTeX\tex\latex\float\float.sty
INPUT C:\Program Files\MiKTeX\tex\latex\float\float.sty
INPUT C:\Program Files\MiKTeX\tex\latex\base\ifthen.sty
INPUT C:\Program Files\MiKTeX\tex\latex\base\ifthen.sty
INPUT C:\Program Files\MiKTeX\tex\latex\algorithmicx\algpseudocode.sty
INPUT C:\Program Files\MiKTeX\tex\latex\algorithmicx\algpseudocode.sty
INPUT C:\Program Files\MiKTeX\tex\latex\algorithmicx\algorithmicx.sty
INPUT C:\Program Files\MiKTeX\tex\latex\algorithmicx\algorithmicx.sty
INPUT C:\Program Files\MiKTeX\tex\latex\adjustbox\adjustbox.sty
INPUT C:\Program Files\MiKTeX\tex\latex\adjustbox\adjustbox.sty
INPUT C:\Program Files\MiKTeX\tex\latex\xkeyval\xkeyval.sty
INPUT C:\Program Files\MiKTeX\tex\latex\xkeyval\xkeyval.sty
INPUT C:\Program Files\MiKTeX\tex\generic\xkeyval\xkeyval.tex
INPUT C:\Program Files\MiKTeX\tex\generic\xkeyval\xkvutils.tex
INPUT C:\Program Files\MiKTeX\tex\latex\adjustbox\adjcalc.sty
INPUT C:\Program Files\MiKTeX\tex\latex\adjustbox\adjcalc.sty
INPUT C:\Program Files\MiKTeX\tex\latex\adjustbox\trimclip.sty
INPUT C:\Program Files\MiKTeX\tex\latex\adjustbox\trimclip.sty
INPUT C:\Program Files\MiKTeX\tex\latex\collectbox\collectbox.sty
INPUT C:\Program Files\MiKTeX\tex\latex\collectbox\collectbox.sty
INPUT C:\Program Files\MiKTeX\tex\latex\adjustbox\tc-pdftex.def
INPUT C:\Program Files\MiKTeX\tex\latex\adjustbox\tc-pdftex.def
INPUT C:\Program Files\MiKTeX\tex\latex\ifoddpage\ifoddpage.sty
INPUT C:\Program Files\MiKTeX\tex\latex\ifoddpage\ifoddpage.sty
INPUT C:\Program Files\MiKTeX\tex\latex\ifoddpage\ifoddpage.sty
INPUT C:\Program Files\MiKTeX\tex\latex\varwidth\varwidth.sty
INPUT C:\Program Files\MiKTeX\tex\latex\varwidth\varwidth.sty
INPUT C:\Program Files\MiKTeX\tex\latex\varwidth\varwidth.sty
INPUT C:\Program Files\MiKTeX\tex\latex\booktabs\booktabs.sty
INPUT C:\Program Files\MiKTeX\tex\latex\booktabs\booktabs.sty
INPUT C:\Program Files\MiKTeX\tex\latex\tools\tabularx.sty
INPUT C:\Program Files\MiKTeX\tex\latex\tools\tabularx.sty
INPUT C:\Program Files\MiKTeX\tex\latex\tools\array.sty
INPUT C:\Program Files\MiKTeX\tex\latex\tools\array.sty
INPUT C:\Program Files\MiKTeX\tex\latex\l3backend\l3backend-pdfmode.def
INPUT C:\Program Files\MiKTeX\tex\latex\l3backend\l3backend-pdfmode.def
INPUT c:\Users\AstridRP\Documents\Article\article\main.aux
INPUT c:\Users\AstridRP\Documents\Article\article\main.aux
OUTPUT c:\Users\AstridRP\Documents\Article\article\main.aux
INPUT C:\Program Files\MiKTeX\tex\context\base\mkii\supp-pdf.mkii
INPUT C:\Program Files\MiKTeX\tex\context\base\mkii\supp-pdf.mkii
INPUT C:\Program Files\MiKTeX\tex\latex\epstopdf-pkg\epstopdf-base.sty
INPUT C:\Program Files\MiKTeX\tex\latex\epstopdf-pkg\epstopdf-base.sty
INPUT C:\Program Files\MiKTeX\fonts\tfm\public\cm\cmr12.tfm
INPUT C:\Program Files\MiKTeX\fonts\tfm\public\amsfonts\cmextra\cmex7.tfm
INPUT C:\Program Files\MiKTeX\fonts\tfm\public\amsfonts\cmextra\cmex7.tfm
INPUT C:\Program Files\MiKTeX\tex\latex\amsfonts\umsa.fd
INPUT C:\Program Files\MiKTeX\tex\latex\amsfonts\umsa.fd
INPUT C:\Program Files\MiKTeX\fonts\tfm\public\amsfonts\symbols\msam10.tfm
INPUT C:\Program Files\MiKTeX\fonts\tfm\public\amsfonts\symbols\msam7.tfm
INPUT C:\Program Files\MiKTeX\fonts\tfm\public\amsfonts\symbols\msam5.tfm
INPUT C:\Program Files\MiKTeX\tex\latex\amsfonts\umsb.fd
INPUT C:\Program Files\MiKTeX\tex\latex\amsfonts\umsb.fd
INPUT C:\Program Files\MiKTeX\fonts\tfm\public\amsfonts\symbols\msbm10.tfm
INPUT C:\Program Files\MiKTeX\fonts\tfm\public\amsfonts\symbols\msbm7.tfm
INPUT C:\Program Files\MiKTeX\fonts\tfm\public\amsfonts\symbols\msbm5.tfm
INPUT C:\Program Files\MiKTeX\fonts\tfm\public\cm\cmr8.tfm
INPUT C:\Program Files\MiKTeX\fonts\tfm\public\cm\cmti8.tfm
INPUT C:\Program Files\MiKTeX\fonts\tfm\public\cm\cmr6.tfm
INPUT C:\Program Files\MiKTeX\fonts\tfm\public\cm\cmmi8.tfm
INPUT C:\Program Files\MiKTeX\fonts\tfm\public\cm\cmmi6.tfm
INPUT C:\Program Files\MiKTeX\fonts\tfm\public\cm\cmsy8.tfm
INPUT C:\Program Files\MiKTeX\fonts\tfm\public\cm\cmsy6.tfm
INPUT C:\Program Files\MiKTeX\fonts\tfm\public\amsfonts\cmextra\cmex8.tfm
INPUT C:\Program Files\MiKTeX\fonts\tfm\public\amsfonts\cmextra\cmex7.tfm
INPUT C:\Program Files\MiKTeX\fonts\tfm\public\amsfonts\symbols\msam10.tfm
INPUT C:\Program Files\MiKTeX\fonts\tfm\public\amsfonts\symbols\msam7.tfm
INPUT C:\Program Files\MiKTeX\fonts\tfm\public\amsfonts\symbols\msbm10.tfm
INPUT C:\Program Files\MiKTeX\fonts\tfm\public\amsfonts\symbols\msbm7.tfm
INPUT C:\Program Files\MiKTeX\fonts\tfm\public\cm\cmti7.tfm
INPUT C:\Program Files\MiKTeX\fonts\tfm\public\cm\cmbx10.tfm
INPUT c:\Users\AstridRP\Documents\Article\article\tex\method2.tex
INPUT c:\Users\AstridRP\Documents\Article\article\tex\method2.tex
INPUT C:\Program Files\MiKTeX\fonts\tfm\public\cm\cmti10.tfm
OUTPUT c:\Users\AstridRP\Documents\Article\article\main.pdf
INPUT C:\Users\AstridRP\AppData\Local\MiKTeX\pdftex\config\pdftex.map
INPUT C:\Program Files\MiKTeX\fonts\tfm\public\cm\cmbxti10.tfm
INPUT C:\Program Files\MiKTeX\fonts\tfm\public\cm\cmtt10.tfm
INPUT C:\Program Files\MiKTeX\fonts\tfm\public\cm\cmtt8.tfm
INPUT images\lcptreeF.png
INPUT .\images\lcptreeF.png
INPUT .\images\lcptreeF.png
INPUT .\images\lcptreeF.png
INPUT .\images\lcptreeF.png
INPUT C:\Program Files\MiKTeX\fonts\tfm\public\cm\cmti7.tfm
INPUT C:\Program Files\MiKTeX\fonts\tfm\public\cm\cmti7.tfm
INPUT C:\Program Files\MiKTeX\fonts\tfm\public\cm\cmcsc10.tfm
INPUT images\lcptreenew.png
INPUT .\images\lcptreenew.png
INPUT .\images\lcptreenew.png
INPUT .\images\lcptreenew.png
INPUT .\images\lcptreenew.png
INPUT c:\Users\AstridRP\Documents\Article\article\tex\ejemplo.tex
INPUT c:\Users\AstridRP\Documents\Article\article\tex\ejemplo.tex
INPUT c:\Users\AstridRP\Documents\Article\article\tex\evaluation.tex
INPUT c:\Users\AstridRP\Documents\Article\article\tex\evaluation.tex
INPUT c:\Users\AstridRP\Documents\Article\article\tex\conclusions.tex
INPUT c:\Users\AstridRP\Documents\Article\article\tex\conclusions.tex
INPUT c:\Users\AstridRP\Documents\Article\article\main.bbl
INPUT c:\Users\AstridRP\Documents\Article\article\main.bbl
INPUT c:\Users\AstridRP\Documents\Article\article\main.aux
INPUT C:\Program Files\MiKTeX\fonts\type1\public\amsfonts\cm\cmbx10.pfb
INPUT C:\Program Files\MiKTeX\fonts\type1\public\amsfonts\cm\cmbx10.pfb
INPUT C:\Program Files\MiKTeX\fonts\type1\public\amsfonts\cm\cmbxti10.pfb
INPUT C:\Program Files\MiKTeX\fonts\type1\public\amsfonts\cm\cmbxti10.pfb
INPUT C:\Program Files\MiKTeX\fonts\type1\public\amsfonts\cm\cmcsc10.pfb
INPUT C:\Program Files\MiKTeX\fonts\type1\public\amsfonts\cm\cmcsc10.pfb
INPUT C:\Program Files\MiKTeX\fonts\type1\public\amsfonts\cm\cmex10.pfb
INPUT C:\Program Files\MiKTeX\fonts\type1\public\amsfonts\cm\cmex10.pfb
INPUT C:\Program Files\MiKTeX\fonts\type1\public\amsfonts\cm\cmmi10.pfb
INPUT C:\Program Files\MiKTeX\fonts\type1\public\amsfonts\cm\cmmi10.pfb
INPUT C:\Program Files\MiKTeX\fonts\type1\public\amsfonts\cm\cmmi5.pfb
INPUT C:\Program Files\MiKTeX\fonts\type1\public\amsfonts\cm\cmmi5.pfb
INPUT C:\Program Files\MiKTeX\fonts\type1\public\amsfonts\cm\cmmi7.pfb
INPUT C:\Program Files\MiKTeX\fonts\type1\public\amsfonts\cm\cmmi7.pfb
INPUT C:\Program Files\MiKTeX\fonts\type1\public\amsfonts\cm\cmmi8.pfb
INPUT C:\Program Files\MiKTeX\fonts\type1\public\amsfonts\cm\cmmi8.pfb
INPUT C:\Program Files\MiKTeX\fonts\type1\public\amsfonts\cm\cmr10.pfb
INPUT C:\Program Files\MiKTeX\fonts\type1\public\amsfonts\cm\cmr10.pfb
INPUT C:\Program Files\MiKTeX\fonts\type1\public\amsfonts\cm\cmr12.pfb
INPUT C:\Program Files\MiKTeX\fonts\type1\public\amsfonts\cm\cmr12.pfb
INPUT C:\Program Files\MiKTeX\fonts\type1\public\amsfonts\cm\cmr6.pfb
INPUT C:\Program Files\MiKTeX\fonts\type1\public\amsfonts\cm\cmr6.pfb
INPUT C:\Program Files\MiKTeX\fonts\type1\public\amsfonts\cm\cmr7.pfb
INPUT C:\Program Files\MiKTeX\fonts\type1\public\amsfonts\cm\cmr7.pfb
INPUT C:\Program Files\MiKTeX\fonts\type1\public\amsfonts\cm\cmr8.pfb
INPUT C:\Program Files\MiKTeX\fonts\type1\public\amsfonts\cm\cmr8.pfb
INPUT C:\Program Files\MiKTeX\fonts\type1\public\amsfonts\cm\cmsy10.pfb
INPUT C:\Program Files\MiKTeX\fonts\type1\public\amsfonts\cm\cmsy10.pfb
INPUT C:\Program Files\MiKTeX\fonts\type1\public\amsfonts\cm\cmsy7.pfb
INPUT C:\Program Files\MiKTeX\fonts\type1\public\amsfonts\cm\cmsy7.pfb
INPUT C:\Program Files\MiKTeX\fonts\type1\public\amsfonts\cm\cmsy8.pfb
INPUT C:\Program Files\MiKTeX\fonts\type1\public\amsfonts\cm\cmsy8.pfb
INPUT C:\Program Files\MiKTeX\fonts\type1\public\amsfonts\cm\cmti10.pfb
INPUT C:\Program Files\MiKTeX\fonts\type1\public\amsfonts\cm\cmti10.pfb
INPUT C:\Program Files\MiKTeX\fonts\type1\public\amsfonts\cm\cmti7.pfb
INPUT C:\Program Files\MiKTeX\fonts\type1\public\amsfonts\cm\cmti7.pfb
INPUT C:\Program Files\MiKTeX\fonts\type1\public\amsfonts\cm\cmti8.pfb
INPUT C:\Program Files\MiKTeX\fonts\type1\public\amsfonts\cm\cmti8.pfb
INPUT C:\Program Files\MiKTeX\fonts\type1\public\amsfonts\cm\cmtt10.pfb
INPUT C:\Program Files\MiKTeX\fonts\type1\public\amsfonts\cm\cmtt10.pfb
INPUT C:\Program Files\MiKTeX\fonts\type1\public\amsfonts\cm\cmtt8.pfb
INPUT C:\Program Files\MiKTeX\fonts\type1\public\amsfonts\cm\cmtt8.pfb
